<svg xmlns="http://www.w3.org/2000/svg" width="48" height="48" version="1">
 <rect style="opacity:0.2" width="40" height="26" x="4" y="17" rx="2" ry="2"/>
 <path style="fill:#729b79" d="M 4,34 C 4,35.108 4.892,36 6,36 H 42 C 43.108,36 44,35.108 44,34 V 12 C 44,10.892 43.108,10 42,10 H 24 C 21,10 20,6 17,6 H 6 C 4.892,6 4,6.892 4,8"/>
 <rect style="opacity:0.2" width="40" height="26" x="4" y="15" rx="2" ry="2"/>
 <rect style="fill:#e1e4dc" width="36" height="16" x="6" y="13" rx="2" ry="2"/>
 <rect style="fill:#59795f" width="40" height="26" x="4" y="16" rx="2" ry="2"/>
 <path style="opacity:0.1;fill:#e1e4dc" d="M 6,6 C 4.892,6 4,6.892 4,8 V 9 C 4,7.892 4.892,7 6,7 H 17 C 20,7 21,11 24,11 H 42 C 43.108,11 44,11.892 44,13 V 12 C 44,10.892 43.108,10 42,10 H 24 C 21,10 20,6 17,6 Z"/>
 <path style="fill:#323232" d="M 23.092,23.047 C 19.536,23.047 20.363,26.295 18.543,27.273 18.48,27.309 18.445,27.342 18.389,27.377 19.589,26.662 21.069,26.065 22.641,25.66 23.972,25.317 25.321,25.125 26.566,25.101 26.598,25.101 26.63,25.101 26.662,25.101 25.462,24.76 25.33,23.047 23.092,23.047 Z M 26.967,26.002 C 25.722,26.026 24.372,26.218 23.041,26.56 18.655,27.689 15.528,30.144 16.059,32.043 16.364,33.128 17.836,33.844 20.029,33.974 20.028,33.966 20.026,33.959 20.025,33.951 19.907,32.924 20.558,32.031 21.322,31.425 22.086,30.82 23.068,30.38 24.172,30.146 25.275,29.912 26.308,29.923 27.172,30.183 27.984,30.428 28.748,30.961 28.935,31.877 31.134,30.644 32.274,29.158 31.943,27.957 31.593,26.699 29.685,25.949 26.967,26.002 Z M 25.662,31 A 1.8586,3.577 76.001 0 0 24.285,31.142 1.8586,3.577 76.001 0 0 21.006,33.742 1.8586,3.577 76.001 0 0 24.715,34.857 1.8586,3.577 76.001 0 0 27.992,32.258 1.8586,3.577 76.001 0 0 25.662,31 Z"/>
</svg>
