<svg xmlns="http://www.w3.org/2000/svg" width="48" height="48" version="1">
 <rect style="opacity:0.2" width="40" height="26" x="4" y="17" rx="2" ry="2"/>
 <path style="fill:#729b79" d="M 4,34 C 4,35.108 4.892,36 6,36 H 42 C 43.108,36 44,35.108 44,34 V 12 C 44,10.892 43.108,10 42,10 H 24 C 21,10 20,6 17,6 H 6 C 4.892,6 4,6.892 4,8"/>
 <rect style="opacity:0.2" width="40" height="26" x="4" y="15" rx="2" ry="2"/>
 <rect style="fill:#e1e4dc" width="36" height="16" x="6" y="13" rx="2" ry="2"/>
 <rect style="fill:#59795f" width="40" height="26" x="4" y="16" rx="2" ry="2"/>
 <path style="opacity:0.1" d="M 6,6 C 4.892,6 4,6.892 4,8 V 9 C 4,7.892 4.892,7 6,7 H 17 C 20,7 21,11 24,11 H 42 C 43.108,11 44,11.892 44,13 V 12 C 44,10.892 43.108,10 42,10 H 24 C 21,10 20,6 17,6 Z"/>
 <path style="fill:#323232" d="M 17.99981,21 C 16.891915,21 16,21.892 16,23 v 3 c 0,1.108 0.891915,2 1.99981,2 h 2.999715 c 1.107895,0 1.99981,-0.892 1.99981,-2 v -3 c 0,-1.108 -0.891915,-2 -1.99981,-2 z m 8.999146,0 c -1.107895,0 -1.999811,0.892 -1.999811,2 v 3 c 0,1.108 0.891916,2 1.999811,2 h 2.999715 c 1.107894,0 1.99981,-0.892 1.99981,-2 v -3 c 0,-1.108 -0.891916,-2 -1.99981,-2 z M 17.99981,30 C 16.891915,30 16,30.892 16,32 v 3 c 0,1.108 0.891915,2 1.99981,2 h 2.999715 c 1.107895,0 1.99981,-0.892 1.99981,-2 v -3 c 0,-1.108 -0.891915,-2 -1.99981,-2 z m 9.999051,0 c -0.553948,0 -0.999905,0.446 -0.999905,1 v 1 H 25.99905 c -0.847781,4.15e-4 -1.310476,0.989475 -0.767505,1.640625 l 2.499763,3 c 0.39975,0.478651 1.13526,0.478651 1.53501,0 l 2.499763,-3 C 32.309052,32.989475 31.846357,32.000415 30.998576,32 h -0.999905 v -1 c 0,-0.554 -0.445958,-1 -0.999905,-1 z"/>
</svg>
