<svg xmlns="http://www.w3.org/2000/svg" width="64" height="64" version="1">
 <rect style="opacity:0.2" width="56" height="36" x="4" y="22" rx="2.8" ry="2.8"/>
 <path style="fill:#59795f" d="M 4,46.2 C 4,47.751 5.2488,49 6.8,49 H 57.2 C 58.751,49 60,47.751 60,46.2 V 15.8 C 60,14.249 58.751,13 57.2,13 H 32 C 27.8,13 26.4,7 22.2,7 H 6.8 C 5.2488,7 4,8.2488 4,9.8"/>
 <rect style="opacity:0.2" width="56" height="36" x="4" y="20" rx="2.8" ry="2.8"/>
 <rect style="fill:#e1e4dc" width="48" height="22" x="8" y="16" rx="2.8" ry="2.8"/>
 <rect style="fill:#729b79" width="56" height="36" x="4" y="21" rx="2.8" ry="2.8"/>
 <path style="fill:#323232" d="M 32 27 C 25.372582 27.000002 20 32.372582 20 39 C 20 45.627416 25.372582 50.999998 32 51 C 38.627416 51 44 45.627416 44 39 C 44 32.372582 38.627416 27 32 27 z M 32 29 C 37.522848 29 42 33.47715 42 39 C 42 44.522848 37.522848 49 32 49 C 26.477152 48.999998 22 44.522848 22 39 C 22 33.47715 26.477152 29.000002 32 29 z"/>
 <path style="opacity:0.1;fill:#e1e4dc" d="M 6.8008,7 C 5.2496,7 4,8.2496 4,9.8008 V 10.801 C 4,9.2496 5.2496,8 6.8008,8 H 22.199 C 26.399,8 27.8,14 32,14 H 57.199 C 58.75,14 60,15.25 60,16.801 V 15.801 C 60,14.25 58.75,13 57.199,13 H 32 C 27.8,13 26.399,7 22.199,7 Z"/>
 <path fill="none" stroke-width="1.143" style="stroke:#323232;stroke-width:2" d="m 21,42 14,-2 8,-6"/>
 <path fill="none" stroke-width="1.143" style="stroke:#323232;stroke-width:2" d="M 41,46 35,40"/>
 <circle style="fill:#323232" cx="41" cy="46" r="3"/>
 <circle style="fill:#323232" cx="43" cy="34" r="3"/>
 <circle style="fill:#323232" cx="35" cy="40" r="3"/>
 <circle style="fill:#323232" cx="21" cy="42" r="3"/>
</svg>
