<svg xmlns="http://www.w3.org/2000/svg" width="64" height="64" version="1">
 <rect style="opacity:0.2" width="56" height="36" x="4" y="22" rx="2.8" ry="2.8"/>
 <path style="fill:#729b79" d="M 4,46.2 C 4,47.751 5.2488,49 6.8,49 H 57.2 C 58.751,49 60,47.751 60,46.2 V 15.8 C 60,14.249 58.751,13 57.2,13 H 32 C 27.8,13 26.4,7 22.2,7 H 6.8 C 5.2488,7 4,8.2488 4,9.8"/>
 <rect style="opacity:0.2" width="56" height="36" x="4" y="20" rx="2.8" ry="2.8"/>
 <rect style="fill:#e1e4dc" width="48" height="22" x="8" y="16" rx="2.8" ry="2.8"/>
 <rect style="fill:#59795f" width="56" height="36" x="4" y="21" rx="2.8" ry="2.8"/>
 <path style="opacity:0.1;fill:#e1e4dc" d="M 6.8008,7 C 5.2496,7 4,8.2496 4,9.8008 V 10.801 C 4,9.2496 5.2496,8 6.8008,8 H 22.199 C 26.399,8 27.8,14 32,14 H 57.199 C 58.75,14 60,15.25 60,16.801 V 15.801 C 60,14.25 58.75,13 57.199,13 H 32 C 27.8,13 26.399,7 22.199,7 Z"/>
 <path style="fill:#323232" d="M 39.905,26 C 34.827,26 33.875,33.717 36.732,33.717 39.588,33.717 44.984,26 39.905,26 Z M 32.083,27.187 C 32.003,27.187 31.918,27.195 31.827,27.204 28.948,27.567 29.961,32.438 31.493,32.529 32.974,32.617 34.598,27.196 32.08,27.187 Z M 27.094,28.985 C 26.918,28.974 26.723,29.007 26.506,29.096 24.193,30.046 26.155,33.967 27.45,33.704 28.625,33.465 28.794,29.095 27.094,28.985 Z M 23.319,32.191 C 23.118,32.185 22.9,32.255 22.668,32.427 20.817,33.809 23.292,37.148 24.381,36.63 25.334,36.177 24.726,32.242 23.318,32.191 Z M 34.254,35.378 C 30.243,35.309 24.95,37.344 24.047,41.436 23.07,45.86 28.071,52 33.287,52 35.854,52 38.815,49.654 39.369,46.683 39.792,44.418 34.391,45.326 34.584,46.824 34.817,48.621 33.282,49.509 31.779,48.351 26.992,44.664 39.704,42.824 38.865,37.786 38.604,36.218 36.658,35.42 34.252,35.378 Z"/>
</svg>
