<svg xmlns="http://www.w3.org/2000/svg" width="64" height="64" version="1">
 <rect style="opacity:0.2" width="56" height="36" x="4" y="22" rx="2.8" ry="2.8"/>
 <path style="fill:#729b79" d="M 4,46.2 C 4,47.751 5.2488,49 6.8,49 H 57.2 C 58.751,49 60,47.751 60,46.2 V 15.8 C 60,14.249 58.751,13 57.2,13 H 32 C 27.8,13 26.4,7 22.2,7 H 6.8 C 5.2488,7 4,8.2488 4,9.8"/>
 <rect style="opacity:0.2" width="56" height="36" x="4" y="20" rx="2.8" ry="2.8"/>
 <rect style="fill:#e1e4dc" width="48" height="22" x="8" y="16" rx="2.8" ry="2.8"/>
 <rect style="fill:#59795f" width="56" height="36" x="4" y="21" rx="2.8" ry="2.8"/>
 <path style="fill:#323232" d="M 22.571486,27.999889 C 21.700899,27.999889 21,28.700754 21,29.571375 v 6.871882 c 0,0.870588 0.700866,1.571486 1.571486,1.571486 C 23.442073,38.014743 24,37.313878 24,36.443257 v -3.590186 l 3.000204,2.856955 v 2.504521 h 3.042914 v -0.385554 c 0,-0.435299 0.350431,-0.785732 0.785732,-0.785732 h 0.385556 V 34.000127 H 28.709884 L 25.853,31.000071 h 3.590257 c 0.870587,0 1.571486,-0.557933 1.571486,-1.428553 0,-0.870588 -0.700866,-1.571486 -1.571486,-1.571486 h -6.871804 z m 11.985257,0 c -0.870587,0 -1.571486,0.700865 -1.571486,1.571486 0,0.870587 0.700866,1.428554 1.571486,1.428554 H 38.147 l -2.856994,2.999945 h -2.504522 v 3.043134 h 0.385633 c 0.4353,0 0.785732,0.350433 0.785732,0.785732 v 0.385554 h 3.042558 v -2.504521 l 3.000945,-2.856845 v 3.590329 c 0,0.870588 0.65738,1.571486 1.528,1.571486 C 42.398939,38.014743 43,37.313878 43,36.443257 v -6.872025 c 0,-0.870588 -0.700866,-1.571486 -1.571486,-1.571486 H 34.5566 Z m -7.556979,11.785594 v 2.642554 c 0,0.871215 0.201039,1.54422 1.071813,1.571926 h 3.142862 v -3.042916 h -0.385556 c -0.4353,0 -0.676424,-0.36438 -0.785732,-0.785732 v -0.385469 h -3.042914 z m 6.957118,0 v 0.385469 c 0,0.435299 -0.350432,0.785732 -0.785732,0.785732 H 32.785517 V 43.9996 h 2.504522 L 38.147,47 h -3.590257 c -0.870587,0 -1.571486,0.65838 -1.571486,1.529 0,0.870587 0.700866,1.470999 1.571486,1.470999 h 6.871727 c 0.870114,0.0011 1.570826,-0.699612 1.570826,-1.570826 v -6.87143 c 0,-0.870587 -0.601028,-1.571486 -1.471648,-1.571486 -0.870587,0 -1.528,0.700866 -1.528,1.571486 V 45.148 L 36.998593,42.291622 V 39.7871 h -3.042558 z"/>
 <path style="opacity:0.1;fill:#e1e4dc" d="M 6.8008,7 C 5.2496,7 4,8.2496 4,9.8008 V 10.801 C 4,9.2496 5.2496,8 6.8008,8 H 22.199 C 26.399,8 27.8,14 32,14 H 57.199 C 58.75,14 60,15.25 60,16.801 V 15.801 C 60,14.25 58.75,13 57.199,13 H 32 C 27.8,13 26.399,7 22.199,7 Z"/>
</svg>
