<svg xmlns="http://www.w3.org/2000/svg" width="24" height="24" version="1">
 <rect style="opacity:0.2" width="20" height="12" x="2" y="9.5" rx="1" ry="1"/>
 <path style="fill:#59795f" d="M 2,17 C 2,17.554 2.446,18 3,18 H 21 C 21.554,18 22,17.554 22,17 V 6 C 22,5.446 21.554,5 21,5 H 12 C 10.5,5 10,3 8.5,3 H 3 C 2.446,3 2,3.446 2,4"/>
 <rect style="opacity:0.2" width="20" height="12" x="2" y="8.5" rx="1" ry="1"/>
 <rect style="fill:#e1e4dc" width="16" height="8" x="4" y="7" rx="1" ry="1"/>
 <rect style="fill:#729b79" width="20" height="12" x="2" y="9" rx="1" ry="1"/>
 <path style="opacity:0.1;fill:#e1e4dc" d="M 3,3 C 2.446,3 2,3.446 2,4 V 4.5 C 2,3.946 2.446,3.5 3,3.5 H 8.5 C 10,3.5 10.5,5.5 12,5.5 H 21 C 21.554,5.5 22,5.946 22,6.5 V 6 C 22,5.446 21.554,5 21,5 H 12 C 10.5,5 10,3 8.5,3 Z"/>
 <path style="fill:#323232" d="M 11.586,11 C 11.586,11 11.999,11.233 11.708,11.844 11.267,12.765 12.114,12.976 12.114,12.976 12.114,12.976 11.845,12.759 12.204,11.999 12.6,11.157 11.586,11 11.586,11 Z M 13.186,11.92 C 13.186,11.92 12.365,12.235 12.894,13.096 13.244,13.666 12.856,13.949 12.856,13.949 12.856,13.949 13.848,13.668 13.37,12.88 12.939,12.168 13.186,11.92 13.186,11.92 Z M 10.821,11.943 C 10.821,11.943 10.103,12.491 10.815,13.164 11.285,13.612 10.977,14 10.977,14 10.977,14 11.868,13.434 11.224,12.814 10.642,12.256 10.821,11.944 10.821,11.944 Z M 10.977,14 H 9 L 10,18 H 14 L 14.138,17.451 C 14.254,17.48 14.375,17.5 14.5,17.5 15.328,17.5 16,16.828 16,16 16,15.297 15.515,14.711 14.862,14.549 L 15,14 H 10.976 Z M 14.742,15.031 C 14.748,15.032 14.753,15.033 14.759,15.034 15.026,15.105 15.126,15.596 14.983,16.13 14.843,16.65 14.523,17.021 14.258,16.969 Z"/>
</svg>
