<svg xmlns="http://www.w3.org/2000/svg" width="24" height="24" version="1">
 <rect style="opacity:0.2" width="20" height="12" x="2" y="9.5" rx="1" ry="1"/>
 <path style="fill:#59795f" d="M 2,17 C 2,17.554 2.446,18 3,18 H 21 C 21.554,18 22,17.554 22,17 V 6 C 22,5.446 21.554,5 21,5 H 12 C 10.5,5 10,3 8.5,3 H 3 C 2.446,3 2,3.446 2,4"/>
 <rect style="opacity:0.2" width="20" height="12" x="2" y="8.5" rx="1" ry="1"/>
 <rect style="fill:#e1e4dc" width="16" height="8" x="4" y="7" rx="1" ry="1"/>
 <rect style="fill:#729b79" width="20" height="12" x="2" y="9" rx="1" ry="1"/>
 <path style="opacity:0.1;fill:#e1e4dc" d="M 3,3 C 2.446,3 2,3.446 2,4 V 4.5 C 2,3.946 2.446,3.5 3,3.5 H 8.5 C 10,3.5 10.5,5.5 12,5.5 H 21 C 21.554,5.5 22,5.946 22,6.5 V 6 C 22,5.446 21.554,5 21,5 H 12 C 10.5,5 10,3 8.5,3 Z"/>
 <path style="fill:#323232" d="M 9,11 V 12.5 H 15 V 11 Z M 8.5,13 C 8.25,13 8,13.25 8,13.5 V 15.5 C 8,15.75 8.25,16 8.5,16 H 9 V 18 H 15 V 16 H 15.5 C 15.75,16 16,15.75 16,15.5 V 13.5 C 16,13.25 15.75,13 15.5,13 Z M 9,15 H 15 V 15.5 H 9 Z"/>
</svg>
