<svg xmlns="http://www.w3.org/2000/svg" width="64" height="64" version="1">
 <rect style="opacity:0.2" width="56" height="36" x="4" y="22" rx="2.8" ry="2.8"/>
 <path style="fill:#59795f" d="M 4,46.2 C 4,47.751 5.2488,49 6.8,49 H 57.2 C 58.751,49 60,47.751 60,46.2 V 15.8 C 60,14.249 58.751,13 57.2,13 H 32 C 27.8,13 26.4,7 22.2,7 H 6.8 C 5.2488,7 4,8.2488 4,9.8"/>
 <rect style="opacity:0.2" width="56" height="36" x="4" y="20" rx="2.8" ry="2.8"/>
 <rect style="fill:#e1e4dc" width="48" height="22" x="8" y="16" rx="2.8" ry="2.8"/>
 <rect style="fill:#729b79" width="56" height="36" x="4" y="21" rx="2.8" ry="2.8"/>
 <path style="opacity:0.1;fill:#e1e4dc" d="M 6.8008,7 C 5.2496,7 4,8.2496 4,9.8008 V 10.801 C 4,9.2496 5.2496,8 6.8008,8 H 22.199 C 26.399,8 27.8,14 32,14 H 57.199 C 58.75,14 60,15.25 60,16.801 V 15.801 C 60,14.25 58.75,13 57.199,13 H 32 C 27.8,13 26.399,7 22.199,7 Z"/>
 <path style="fill:#323232" d="M 6.8008 21 C 5.2496 21 4 22.25 4 23.801 L 4 25.309 L 58.404 56.719 C 59.346 56.269 60 55.316 60 54.199 L 60 51.641 L 6.9297 21 L 6.8008 21 z M 17.324 21 L 60 45.639 L 60 39.639 L 27.715 21 L 17.324 21 z M 38.107 21 L 60 33.641 L 60 27.641 L 48.498 21 L 38.107 21 z M 4 31.311 L 4 37.311 L 38.105 57 L 48.498 57 L 4 31.311 z M 4 43.311 L 4 49.311 L 17.318 57 L 27.711 57 L 4 43.311 z"/>
</svg>
