<svg xmlns="http://www.w3.org/2000/svg" width="22" height="22" version="1">
 <rect style="opacity:0.2" width="20" height="12" x="1" y="8.5" rx="1" ry="1"/>
 <path style="fill:#729b79" d="M 1,16 C 1,16.554 1.446,17 2,17 H 20 C 20.554,17 21,16.554 21,16 V 5 C 21,4.446 20.554,4 20,4 H 11 C 9.5,4 9,2 7.5,2 H 2 C 1.446,2 1,2.446 1,3"/>
 <rect style="opacity:0.2" width="20" height="12" x="1" y="7.5" rx="1" ry="1"/>
 <rect style="fill:#e1e4dc" width="16" height="8" x="3" y="6" rx="1" ry="1"/>
 <rect style="fill:#59795f" width="20" height="12" x="1" y="8" rx="1" ry="1"/>
 <path style="opacity:0.1;fill:#e1e4dc" d="M 2,2 C 1.446,2 1,2.446 1,3 V 3.5 C 1,2.946 1.446,2.5 2,2.5 H 7.5 C 9,2.5 9.5,4.5 11,4.5 H 20 C 20.554,4.5 21,4.946 21,5.5 V 5 C 21,4.446 20.554,4 20,4 H 11 C 9.5,4 9,2 7.5,2 Z"/>
 <path style="fill:#323232" d="M 12.989,10 C 12.492,10.018 11.891,10.287 11.535,10.653 11.216,10.978 10.937,11.496 11.012,11.993 11.566,12.031 12.13,11.746 12.475,11.38 12.82,11.013 13.052,10.508 12.989,10 Z M 12.539,12.003 C 11.916,11.941 11.625,12.366 11.309,12.366 10.993,12.366 10.505,12.013 9.9894,12.023 9.3104,12.033 8.6823,12.412 8.3327,13.013 7.6272,14.223 8.1529,16.016 8.8405,16.997 9.1764,17.477 9.5874,18 10.104,18 10.621,18 10.802,17.673 11.414,17.673 12.027,17.673 11.893,18 12.434,18 12.975,18 13.225,17.497 13.559,17.015 13.945,16.458 14,16 14,16 14,16 13.008,15.488 12.998,14.292 12.988,13.291 14,12.786 14,12.786 13.53,12.107 12.8,12.014 12.539,12.003 Z"/>
</svg>
