<svg xmlns="http://www.w3.org/2000/svg" width="32" height="32" version="1">
 <rect style="opacity:0.2" width="28" height="18" x="2" y="11" rx="1.4" ry="1.4"/>
 <path style="fill:#59795f" d="M 2,22.6 C 2,23.376 2.6244,24 3.4,24 H 28.6 C 29.376,24 30,23.376 30,22.6 V 7.4 C 30,6.6244 29.376,6 28.6,6 H 16 C 13.9,6 13.2,3 11.1,3 H 3.4 C 2.6244,3 2,3.6244 2,4.4"/>
 <rect style="opacity:0.2" width="28" height="18" x="2" y="9" rx="1.4" ry="1.4"/>
 <rect style="fill:#e1e4dc" width="24" height="11" x="4" y="8" rx="1.4" ry="1.4"/>
 <rect style="fill:#729b79" width="28" height="18" x="2" y="10" rx="1.4" ry="1.4"/>
 <path style="opacity:0.1;fill:#e1e4dc" d="M 3.4004,3 C 2.6248,3 2,3.6248 2,4.4004 V 5.4004 C 2,4.6248 2.6248,4 3.4004,4 H 11.1 C 13.2,4 13.9,7 16,7 H 28.6 C 29.375,7 30,7.6248 30,8.4004 V 7.4004 C 30,6.6248 29.375,6 28.6,6 H 16 C 13.9,6 13.2,3 11.1,3 Z"/>
 <path style="fill:#323232" d="M 13.599609 15 C 13.599609 15 13 15.625 13 16.875 C 13 18.233889 13.837164 19.378274 15 19.808594 L 15 23 L 14 23 L 14 23.572266 L 14 24 L 18 24 L 18 23.572266 L 18 23 L 17 23 L 17 19.808594 C 18.162836 19.378274 19 18.233889 19 16.875 C 19 15.625 18.400391 15 18.400391 15 L 13.599609 15 z"/>
</svg>
