<svg xmlns="http://www.w3.org/2000/svg" width="24" height="24" version="1">
 <rect style="opacity:0.2" width="20" height="12" x="2" y="9.5" rx="1" ry="1"/>
 <path style="fill:#729b79" d="M 2,17 C 2,17.554 2.446,18 3,18 H 21 C 21.554,18 22,17.554 22,17 V 6 C 22,5.446 21.554,5 21,5 H 12 C 10.5,5 10,3 8.5,3 H 3 C 2.446,3 2,3.446 2,4"/>
 <rect style="opacity:0.2" width="20" height="12" x="2" y="8.5" rx="1" ry="1"/>
 <rect style="fill:#e1e4dc" width="16" height="8" x="4" y="7" rx="1" ry="1"/>
 <rect style="fill:#59795f" width="20" height="12" x="2" y="9" rx="1" ry="1"/>
 <path style="opacity:0.1;fill:#e1e4dc" d="M 3,3 C 2.446,3 2,3.446 2,4 V 4.5 C 2,3.946 2.446,3.5 3,3.5 H 8.5 C 10,3.5 10.5,5.5 12,5.5 H 21 C 21.554,5.5 22,5.946 22,6.5 V 6 C 22,5.446 21.554,5 21,5 H 12 C 10.5,5 10,3 8.5,3 Z"/>
 <g>
  <path style="fill:#323232" d="M 16,15.48 13.333,11 H 10.75 L 13.25,15.48 Z"/>
  <path style="fill:#323232" d="M 11.25,15.97 9.9999,18 H 14.666 L 16,15.97 Z"/>
  <path style="fill:#323232" d="M 10.5,11.5 8,16 9.3333,18 11.85,14 Z"/>
 </g>
</svg>
