<svg xmlns="http://www.w3.org/2000/svg" width="64" height="64" version="1">
 <rect style="opacity:0.2" width="56" height="36" x="4" y="22" rx="2.8" ry="2.8"/>
 <path style="fill:#729b79" d="M 4,46.2 C 4,47.751 5.2488,49 6.8,49 H 57.2 C 58.751,49 60,47.751 60,46.2 V 15.8 C 60,14.249 58.751,13 57.2,13 H 32 C 27.8,13 26.4,7 22.2,7 H 6.8 C 5.2488,7 4,8.2488 4,9.8"/>
 <rect style="opacity:0.2" width="56" height="36" x="4" y="20" rx="2.8" ry="2.8"/>
 <rect style="fill:#e1e4dc" width="48" height="22" x="8" y="16" rx="2.8" ry="2.8"/>
 <rect style="fill:#59795f" width="56" height="36" x="4" y="21" rx="2.8" ry="2.8"/>
 <path style="opacity:0.1;fill:#e1e4dc" d="M 6.8008,7 C 5.2496,7 4,8.2496 4,9.8008 V 10.801 C 4,9.2496 5.2496,8 6.8008,8 H 22.199 C 26.399,8 27.8,14 32,14 H 57.199 C 58.75,14 60,15.25 60,16.801 V 15.801 C 60,14.25 58.75,13 57.199,13 H 32 C 27.8,13 26.399,7 22.199,7 Z"/>
 <path style="fill:#323232" d="M 34.398,31 C 31.993,31 29.794,32.353 28.703,34.496 28.226,34.301 27.714,34.2 27.199,34.199 25.198,34.199 23.509,35.681 23.242,37.664 21.305,38.33 20.002,40.151 20,42.199 20,44.85 22.15,47 24.801,47 H 39.199 C 41.85,47 44,44.85 44,42.199 43.998,40.162 42.712,38.349 40.789,37.676 40.795,37.584 40.798,37.49 40.801,37.398 40.801,33.864 37.933,31 34.398,31 Z M 34.398,35 C 35.768,35 36.792,36.023 36.797,37.39 36.797,37.392 36.797,37.401 36.797,37.402 A 4.0004,4.0004 0 0 0 39.465,41.449 C 39.799,41.566 39.999,41.848 40.001,42.199 40.001,42.688 39.689,43 39.2,43 H 24.802 C 24.314,43 24.003,42.69 24.001,42.203 V 42.199 C 24.002,41.845 24.204,41.565 24.54,41.449 A 4.0004,4.0004 0 0 0 27.204,38.203 4.0004,4.0004 0 0 0 32.27,36.312 C 32.683,35.5 33.494,35 34.398,35 Z"/>
</svg>
