<svg xmlns="http://www.w3.org/2000/svg" width="64" height="64" version="1">
 <rect style="opacity:0.2" width="56" height="36" x="4" y="22" rx="2.8" ry="2.8"/>
 <path style="fill:#729b79" d="M 4,46.2 C 4,47.751 5.2488,49 6.8,49 H 57.2 C 58.751,49 60,47.751 60,46.2 V 15.8 C 60,14.249 58.751,13 57.2,13 H 32 C 27.8,13 26.4,7 22.2,7 H 6.8 C 5.2488,7 4,8.2488 4,9.8"/>
 <rect style="opacity:0.2" width="56" height="36" x="4" y="20" rx="2.8" ry="2.8"/>
 <rect style="fill:#e1e4dc" width="48" height="22" x="8" y="16" rx="2.8" ry="2.8"/>
 <rect style="fill:#59795f" width="56" height="36" x="4" y="21" rx="2.8" ry="2.8"/>
 <path style="opacity:0.1;fill:#e1e4dc" d="M 6.8008,7 C 5.2496,7 4,8.2496 4,9.8008 V 10.801 C 4,9.2496 5.2496,8 6.8008,8 H 22.199 C 26.399,8 27.8,14 32,14 H 57.199 C 58.75,14 60,15.25 60,16.801 V 15.801 C 60,14.25 58.75,13 57.199,13 H 32 C 27.8,13 26.399,7 22.199,7 Z"/>
 <path style="fill:#323232" d="M 26.412,28 24.998,29.414 27.302,31.718 A 2.9989,2.9989 0 0 0 27.005,33.007 2.9989,2.9989 0 0 0 29.005,35.83 V 44.178 A 2.9989,2.9989 0 0 0 27.007,47 2.9989,2.9989 0 0 0 30.006,49.999 2.9989,2.9989 0 0 0 33.005,47 2.9989,2.9989 0 0 0 31.005,44.177 V 35.829 A 2.9989,2.9989 0 0 0 31.294,35.708 L 35.3,39.713 A 2.9989,2.9989 0 0 0 35.004,41.002 2.9989,2.9989 0 0 0 38.003,44.001 2.9989,2.9989 0 0 0 41.001,41.002 2.9989,2.9989 0 0 0 38.003,38.004 2.9989,2.9989 0 0 0 36.714,38.3 L 32.708,34.295 A 2.9989,2.9989 0 0 0 33.005,33.006 2.9989,2.9989 0 0 0 30.006,30.007 2.9989,2.9989 0 0 0 28.717,30.304 L 26.414,28.002 Z"/>
</svg>
